{
  "project_info": {
    "project_number": "453954366792",
    "firebase_url": "https://ovallite-68d7c.firebaseio.com",
    "project_id": "ovallite-68d7c",
    "storage_bucket": "ovallite-68d7c.appspot.com"
  },
  "client": [
    {
      "client_info": {
        "mobilesdk_app_id": "1:453954366792:android:5cc2309c3e56890d",
        "android_client_info": {
          "package_name": "imonitor.oval.hdfcergo.com.imonitor"
        }
      },
      "oauth_client": [
        {
          "client_id": "453954366792-8vhke3ndbkno99sa8ecp5nm0gstngac9.apps.googleusercontent.com",
          "client_type": 1,
          "android_info": {
            "package_name": "imonitor.oval.hdfcergo.com.imonitor",
            "certificate_hash": "fa3bb63a68eaf397412889f7addc530c2fe93289"
          }
        },
        {
          "client_id": "453954366792-mmg5om9t83kk2p1ouj6nu8s74rrq2adu.apps.googleusercontent.com",
          "client_type": 3
        }
      ],
      "api_key": [
        {
          "current_key": "AIzaSyBNbNC_4NUGyIXOlu1bAN8xZywRIhPzJh0"
        }
      ],
      "services": {
        "analytics_service": {
          "status": 1
        },
        "appinvite_service": {
          "status": 2,
          "other_platform_oauth_client": [
            {
              "client_id": "453954366792-mmg5om9t83kk2p1ouj6nu8s74rrq2adu.apps.googleusercontent.com",
              "client_type": 3
            }
          ]
        },
        "ads_service": {
          "status": 2
        }
      }
    }
  ],
  "configuration_version": "1"
}